<?xml version="1.0" encoding="UTF-8" standalone="no"?>
<!-- Created with Inkscape (http://www.inkscape.org/) -->

<svg
   xmlns:osb="http://www.openswatchbook.org/uri/2009/osb"
   xmlns:dc="http://purl.org/dc/elements/1.1/"
   xmlns:cc="http://creativecommons.org/ns#"
   xmlns:rdf="http://www.w3.org/1999/02/22-rdf-syntax-ns#"
   xmlns:svg="http://www.w3.org/2000/svg"
   xmlns="http://www.w3.org/2000/svg"
   xmlns:sodipodi="http://sodipodi.sourceforge.net/DTD/sodipodi-0.dtd"
   xmlns:inkscape="http://www.inkscape.org/namespaces/inkscape"
   width="130.03944mm"
   height="76.724838mm"
   viewBox="0 0 130.03943 76.724838"
   version="1.1"
   id="svg8"
   inkscape:version="0.92.5 (2060ec1f9f, 2020-04-08)"
   sodipodi:docname="kill-switch.svg">
  <defs
     id="defs2">
    <marker
       inkscape:stockid="DotM"
       orient="auto"
       refY="0"
       refX="0"
       id="marker2495"
       style="overflow:visible"
       inkscape:isstock="true">
      <path
         inkscape:connector-curvature="0"
         id="path2493"
         d="m -2.5,-1 c 0,2.76 -2.24,5 -5,5 -2.76,0 -5,-2.24 -5,-5 0,-2.76 2.24,-5 5,-5 2.76,0 5,2.24 5,5 z"
         style="fill:#000000;fill-opacity:1;fill-rule:evenodd;stroke:#000000;stroke-width:1.00000003pt;stroke-opacity:1"
         transform="matrix(0.4,0,0,0.4,2.96,0.4)" />
    </marker>
    <linearGradient
       id="linearGradient2475"
       osb:paint="solid">
      <stop
         style="stop-color:#000000;stop-opacity:1;"
         offset="0"
         id="stop2473" />
    </linearGradient>
    <marker
       inkscape:isstock="true"
       style="overflow:visible"
       id="marker2048"
       refX="0"
       refY="0"
       orient="auto"
       inkscape:stockid="DotM"
       inkscape:collect="always">
      <path
         transform="matrix(0.4,0,0,0.4,2.96,0.4)"
         style="fill:#000000;fill-opacity:1;fill-rule:evenodd;stroke:#000000;stroke-width:1.00000003pt;stroke-opacity:1"
         d="m -2.5,-1 c 0,2.76 -2.24,5 -5,5 -2.76,0 -5,-2.24 -5,-5 0,-2.76 2.24,-5 5,-5 2.76,0 5,2.24 5,5 z"
         id="path2046"
         inkscape:connector-curvature="0" />
    </marker>
    <marker
       inkscape:stockid="DotM"
       orient="auto"
       refY="0"
       refX="0"
       id="marker929"
       style="overflow:visible"
       inkscape:isstock="true"
       inkscape:collect="always">
      <path
         inkscape:connector-curvature="0"
         id="path927"
         d="m -2.5,-1 c 0,2.76 -2.24,5 -5,5 -2.76,0 -5,-2.24 -5,-5 0,-2.76 2.24,-5 5,-5 2.76,0 5,2.24 5,5 z"
         style="fill:#000000;fill-opacity:1;fill-rule:evenodd;stroke:#000000;stroke-width:1.00000003pt;stroke-opacity:1"
         transform="matrix(0.4,0,0,0.4,2.96,0.4)" />
    </marker>
    <marker
       inkscape:isstock="true"
       style="overflow:visible"
       id="marker1344"
       refX="0"
       refY="0"
       orient="auto"
       inkscape:stockid="DotM"
       inkscape:collect="always">
      <path
         transform="matrix(0.4,0,0,0.4,2.96,0.4)"
         style="fill:#000000;fill-opacity:1;fill-rule:evenodd;stroke:#000000;stroke-width:1.00000003pt;stroke-opacity:1"
         d="m -2.5,-1 c 0,2.76 -2.24,5 -5,5 -2.76,0 -5,-2.24 -5,-5 0,-2.76 2.24,-5 5,-5 2.76,0 5,2.24 5,5 z"
         id="path1342"
         inkscape:connector-curvature="0" />
    </marker>
    <marker
       inkscape:stockid="DotM"
       orient="auto"
       refY="0"
       refX="0"
       id="marker1296"
       style="overflow:visible"
       inkscape:isstock="true"
       inkscape:collect="always">
      <path
         id="path1294"
         d="m -2.5,-1 c 0,2.76 -2.24,5 -5,5 -2.76,0 -5,-2.24 -5,-5 0,-2.76 2.24,-5 5,-5 2.76,0 5,2.24 5,5 z"
         style="fill:#000000;fill-opacity:1;fill-rule:evenodd;stroke:#000000;stroke-width:1.00000003pt;stroke-opacity:1"
         transform="matrix(0.4,0,0,0.4,2.96,0.4)"
         inkscape:connector-curvature="0" />
    </marker>
    <marker
       inkscape:isstock="true"
       style="overflow:visible"
       id="marker1244"
       refX="0"
       refY="0"
       orient="auto"
       inkscape:stockid="DotM"
       inkscape:collect="always">
      <path
         transform="matrix(0.4,0,0,0.4,2.96,0.4)"
         style="fill:#000000;fill-opacity:1;fill-rule:evenodd;stroke:#000000;stroke-width:1.00000003pt;stroke-opacity:1"
         d="m -2.5,-1 c 0,2.76 -2.24,5 -5,5 -2.76,0 -5,-2.24 -5,-5 0,-2.76 2.24,-5 5,-5 2.76,0 5,2.24 5,5 z"
         id="path1242"
         inkscape:connector-curvature="0" />
    </marker>
    <marker
       inkscape:stockid="DotM"
       orient="auto"
       refY="0"
       refX="0"
       id="marker1210"
       style="overflow:visible"
       inkscape:isstock="true"
       inkscape:collect="always">
      <path
         id="path1208"
         d="m -2.5,-1 c 0,2.76 -2.24,5 -5,5 -2.76,0 -5,-2.24 -5,-5 0,-2.76 2.24,-5 5,-5 2.76,0 5,2.24 5,5 z"
         style="fill:#000000;fill-opacity:1;fill-rule:evenodd;stroke:#000000;stroke-width:1.00000003pt;stroke-opacity:1"
         transform="matrix(0.4,0,0,0.4,2.96,0.4)"
         inkscape:connector-curvature="0" />
    </marker>
    <marker
       inkscape:stockid="DotM"
       orient="auto"
       refY="0"
       refX="0"
       id="DotM"
       style="overflow:visible"
       inkscape:isstock="true">
      <path
         id="path984"
         d="m -2.5,-1 c 0,2.76 -2.24,5 -5,5 -2.76,0 -5,-2.24 -5,-5 0,-2.76 2.24,-5 5,-5 2.76,0 5,2.24 5,5 z"
         style="fill:#000000;fill-opacity:1;fill-rule:evenodd;stroke:#000000;stroke-width:1.00000003pt;stroke-opacity:1"
         transform="matrix(0.4,0,0,0.4,2.96,0.4)"
         inkscape:connector-curvature="0" />
    </marker>
  </defs>
  <sodipodi:namedview
     id="base"
     pagecolor="#ffffff"
     bordercolor="#666666"
     borderopacity="1.0"
     inkscape:pageopacity="0.0"
     inkscape:pageshadow="2"
     inkscape:zoom="2.2294131"
     inkscape:cx="178.3042"
     inkscape:cy="236.2608"
     inkscape:document-units="mm"
     inkscape:current-layer="layer1"
     showgrid="false"
     inkscape:window-width="1366"
     inkscape:window-height="703"
     inkscape:window-x="0"
     inkscape:window-y="0"
     inkscape:window-maximized="1"
     fit-margin-top="0"
     fit-margin-left="0"
     fit-margin-right="0"
     fit-margin-bottom="0" />
  <metadata
     id="metadata5">
    <rdf:RDF>
      <cc:Work
         rdf:about="">
        <dc:format>image/svg+xml</dc:format>
        <dc:type
           rdf:resource="http://purl.org/dc/dcmitype/StillImage" />
        <dc:title />
      </cc:Work>
    </rdf:RDF>
  </metadata>
  <g
     inkscape:label="Layer 1"
     inkscape:groupmode="layer"
     id="layer1"
     transform="translate(-11.262678,-13.596468)">
    <g
       id="g910"
       transform="translate(-15.345837,-46.037523)">
      <rect
         y="59.883991"
         x="26.858515"
         height="14.699824"
         width="23.920622"
         id="rect815"
         style="fill:#ff0000;fill-opacity:0;stroke:#ff0000;stroke-width:0.5;stroke-linecap:round;stroke-linejoin:bevel;stroke-miterlimit:4;stroke-dasharray:none;stroke-dashoffset:0;stroke-opacity:1" />
      <flowRoot
         transform="matrix(0.26458333,0,0,0.26458333,20.012739,-101.47983)"
         style="font-style:normal;font-weight:normal;font-size:24px;line-height:0px;font-family:sans-serif;letter-spacing:0px;word-spacing:0px;fill:#000000;fill-opacity:1;stroke:none"
         id="flowRoot817"
         xml:space="preserve"><flowRegion
           id="flowRegion819"><rect
             y="640.17181"
             x="54.548237"
             height="11.61678"
             width="77.781746"
             id="rect821" /></flowRegion><flowPara
           id="flowPara823">PV</flowPara></flowRoot>    </g>
    <g
       id="g903"
       transform="translate(-63.855265,-36.683084)">
      <rect
         y="71.558151"
         x="112.05275"
         height="14.699824"
         width="23.920624"
         id="rect815-1"
         style="fill:#ff0000;fill-opacity:0;stroke:#ff0000;stroke-width:0.5;stroke-linecap:round;stroke-linejoin:bevel;stroke-miterlimit:4;stroke-dasharray:none;stroke-dashoffset:0;stroke-opacity:1" />
      <flowRoot
         transform="matrix(0.26458333,0,0,0.26458333,103.22105,-89.805667)"
         style="font-style:normal;font-weight:normal;font-size:24px;line-height:0px;font-family:sans-serif;letter-spacing:0px;word-spacing:0px;fill:#000000;fill-opacity:1;stroke:none"
         id="flowRoot817-5"
         xml:space="preserve"><flowRegion
           id="flowRegion819-9"><rect
             y="640.17181"
             x="54.548237"
             height="11.61678"
             width="77.781746"
             id="rect821-9" /></flowRegion><flowPara
           id="flowPara823-1">BAT</flowPara></flowRoot>    </g>
    <g
       id="g896"
       transform="translate(8.1147842,-26.173873)">
      <rect
         y="40.020348"
         x="95.48204"
         height="14.699824"
         width="23.920626"
         id="rect815-1-0"
         style="fill:#ff0000;fill-opacity:0;stroke:#ff0000;stroke-width:0.5;stroke-linecap:round;stroke-linejoin:bevel;stroke-miterlimit:4;stroke-dasharray:none;stroke-dashoffset:0;stroke-opacity:1" />
      <flowRoot
         transform="matrix(0.26458333,0,0,0.26458333,86.934045,-121.34657)"
         style="font-style:normal;font-weight:normal;font-size:24px;line-height:0px;font-family:sans-serif;letter-spacing:0px;word-spacing:0px;fill:#000000;fill-opacity:1;stroke:none"
         id="flowRoot817-5-5"
         xml:space="preserve"><flowRegion
           id="flowRegion819-9-0"><rect
             y="640.17181"
             x="54.548237"
             height="11.61678"
             width="77.781746"
             id="rect821-9-2" /></flowRegion><flowPara
           id="flowPara823-1-9">EPS</flowPara></flowRoot>    </g>
    <path
       style="fill:none;stroke:#000000;stroke-width:0.26499999;stroke-linecap:butt;stroke-linejoin:miter;stroke-miterlimit:4;stroke-dasharray:none;stroke-opacity:1;marker-end:url(#DotM)"
       d="M 35.435366,21.110677 H 60.157798"
       id="path914"
       inkscape:connector-curvature="0" />
    <path
       style="fill:none;stroke:#000000;stroke-width:0.26458332px;stroke-linecap:butt;stroke-linejoin:miter;stroke-opacity:1"
       d="M 60.157798,21.110677 V 34.741422"
       id="path916"
       inkscape:connector-curvature="0" />
    <path
       style="fill:none;stroke:#000000;stroke-width:0.26458332px;stroke-linecap:butt;stroke-linejoin:miter;stroke-opacity:1;marker-end:url(#marker1244)"
       d="m 60.157798,21.110677 h 6.611681 v -0.05223"
       id="path1202"
       inkscape:connector-curvature="0" />
    <path
       style="fill:none;stroke:#000000;stroke-width:0.26458332px;stroke-linecap:butt;stroke-linejoin:miter;stroke-opacity:1"
       d="m 66.769479,21.110677 7.491148,-4.325014"
       id="path1204"
       inkscape:connector-curvature="0" />
    <path
       style="fill:none;stroke:#000000;stroke-width:0.26458332px;stroke-linecap:butt;stroke-linejoin:miter;stroke-opacity:1;marker-start:url(#marker1210)"
       d="M 74.234517,21.011205 H 103.55567"
       id="path1206"
       inkscape:connector-curvature="0"
       sodipodi:nodetypes="cc" />
    <path
       style="fill:none;stroke:#000000;stroke-width:0.26458332px;stroke-linecap:butt;stroke-linejoin:miter;stroke-opacity:1"
       d="M 23.472983,28.570729 V 85.650703"
       id="path1276"
       inkscape:connector-curvature="0"
       sodipodi:nodetypes="cc" />
    <path
       style="fill:none;stroke:#000000;stroke-width:0.26458332px;stroke-linecap:butt;stroke-linejoin:miter;stroke-opacity:1"
       d="M 115.55714,28.527406 V 85.525608"
       id="path1280"
       inkscape:connector-curvature="0"
       sodipodi:nodetypes="cc" />
    <path
       style="fill:none;stroke:#000000;stroke-width:0.26458332px;stroke-linecap:butt;stroke-linejoin:miter;stroke-opacity:1"
       d="M 23.472982,85.52222 H 99.688543 115.68621"
       id="path1282"
       inkscape:connector-curvature="0"
       sodipodi:nodetypes="ccc" />
    <path
       style="fill:none;stroke:#000000;stroke-width:0.26458332px;stroke-linecap:butt;stroke-linejoin:miter;stroke-opacity:1;marker-end:url(#marker1296)"
       d="m 60.041237,62.015118 v 6.33109"
       id="path1286"
       inkscape:connector-curvature="0" />
    <path
       style="fill:none;stroke:#000000;stroke-width:0.26458332px;stroke-linecap:butt;stroke-linejoin:miter;stroke-opacity:1;marker-end:url(#marker1344)"
       d="M 60.041237,85.497804 V 75.055238"
       id="path1334"
       inkscape:connector-curvature="0"
       sodipodi:nodetypes="cc" />
    <path
       style="fill:none;stroke:#000000;stroke-width:0.26458332px;stroke-linecap:butt;stroke-linejoin:miter;stroke-opacity:1"
       d="m 60.041237,75.055238 -3.917019,-6.78443"
       id="path1412"
       inkscape:connector-curvature="0" />
    <flowRoot
       transform="matrix(0.26458333,0,0,0.26458333,64.434357,-152.01339)"
       style="font-style:normal;font-weight:normal;font-size:24px;line-height:0px;font-family:sans-serif;letter-spacing:0px;word-spacing:0px;fill:#000000;fill-opacity:1;stroke:none"
       id="flowRoot817-5-5-6"
       xml:space="preserve"><flowRegion
         id="flowRegion819-9-0-0"><rect
           y="640.17181"
           x="54.548237"
           height="5.9024744"
           width="114.92461"
           id="rect821-9-2-7" /></flowRegion><flowPara
         id="flowPara823-1-9-0"
         style="font-size:17.33333397px">EPS_PWR</flowPara></flowRoot>    <flowRoot
       transform="matrix(0.26458333,0,0,0.26458333,32.675161,-116.94892)"
       style="font-style:normal;font-weight:normal;font-size:24px;line-height:0px;font-family:sans-serif;letter-spacing:0px;word-spacing:0px;fill:#000000;fill-opacity:1;stroke:none"
       id="flowRoot817-5-5-6-7"
       xml:space="preserve"><flowRegion
         id="flowRegion819-9-0-0-7"><rect
           y="640.17181"
           x="54.548237"
           height="5.9024744"
           width="114.92461"
           id="rect821-9-2-7-2" /></flowRegion><flowPara
         id="flowPara823-1-9-0-6"
         style="font-size:17.33333397px">VBAT-</flowPara></flowRoot>    <flowRoot
       transform="matrix(0.26458333,0,0,0.26458333,40.472781,-80.912319)"
       style="font-style:normal;font-weight:normal;font-size:24px;line-height:0px;font-family:sans-serif;letter-spacing:0px;word-spacing:0px;fill:#000000;fill-opacity:1;stroke:none"
       id="flowRoot817-5-5-6-4"
       xml:space="preserve"><flowRegion
         id="flowRegion819-9-0-0-5"><rect
           y="640.17181"
           x="54.548237"
           height="5.9024744"
           width="114.92461"
           id="rect821-9-2-7-20" /></flowRegion><flowPara
         id="flowPara823-1-9-0-2"
         style="font-size:17.33333397px">GND</flowPara></flowRoot>    <flowRoot
       transform="matrix(0.26458333,0,0,0.26458333,31.567879,-137.91459)"
       style="font-style:normal;font-weight:normal;font-size:24px;line-height:0px;font-family:sans-serif;letter-spacing:0px;word-spacing:0px;fill:#000000;fill-opacity:1;stroke:none"
       id="flowRoot817-5-5-6-7-9"
       xml:space="preserve"><flowRegion
         id="flowRegion819-9-0-0-7-0"><rect
           y="640.17181"
           x="54.548237"
           height="5.9024744"
           width="114.92461"
           id="rect821-9-2-7-2-9" /></flowRegion><flowPara
         id="flowPara823-1-9-0-6-9"
         style="font-size:17.33333397px">VBAT+</flowPara></flowRoot>    <rect
       style="fill:#000000;fill-opacity:0;stroke:#000000;stroke-width:0.26499999;stroke-linecap:round;stroke-linejoin:bevel;stroke-miterlimit:4;stroke-dasharray:none;stroke-dashoffset:0;stroke-opacity:1"
       id="rect900"
       width="4.0159969"
       height="6.4980197"
       x="58.149799"
       y="55.546768" />
    <path
       style="fill:none;stroke:#000000;stroke-width:0.26458332px;stroke-linecap:butt;stroke-linejoin:miter;stroke-opacity:1"
       d="m 60.038903,53.359847 22.162128,0.08392"
       id="path917"
       inkscape:connector-curvature="0"
       sodipodi:nodetypes="cc" />
    <path
       style="fill:none;stroke:#000000;stroke-width:0.26458332px;stroke-linecap:butt;stroke-linejoin:miter;stroke-opacity:1"
       d="M 60.078302,63.854877 H 96.061635"
       id="path919"
       inkscape:connector-curvature="0" />
    <path
       style="fill:none;stroke:#000000;stroke-width:0.26499999;stroke-linecap:butt;stroke-linejoin:miter;stroke-miterlimit:4;stroke-dasharray:0.26499999,0.26499999;stroke-opacity:1;marker-start:url(#marker929);stroke-dashoffset:0"
       d="m 90.024592,20.977822 0.08392,7.857242"
       id="path921"
       inkscape:connector-curvature="0"
       sodipodi:nodetypes="cc" />
    <g
       id="g963"
       transform="translate(-32.676044,-63.275267)">
      <rect
         y="98.176849"
         x="110.82424"
         height="14.699824"
         width="23.920624"
         id="rect815-1-2"
         style="fill:#ff0000;fill-opacity:0;stroke:#ff0000;stroke-width:0.5;stroke-linecap:round;stroke-linejoin:bevel;stroke-miterlimit:4;stroke-dasharray:none;stroke-dashoffset:0;stroke-opacity:1" />
      <flowRoot
         transform="matrix(0.26458333,0,0,0.26458333,99.281079,-63.19007)"
         style="font-style:normal;font-weight:normal;font-size:24px;line-height:0px;font-family:sans-serif;letter-spacing:0px;word-spacing:0px;fill:#000000;fill-opacity:1;stroke:none"
         id="flowRoot817-5-1"
         xml:space="preserve"><flowRegion
           id="flowRegion819-9-2"><rect
             y="640.17181"
             x="54.548237"
             height="11.61678"
             width="77.781746"
             id="rect821-9-0" /></flowRegion><flowPara
           id="flowPara823-1-7">MEAS</flowPara></flowRoot>    </g>
    <path
       style="fill:none;stroke:#000000;stroke-width:0.26458332px;stroke-linecap:butt;stroke-linejoin:miter;stroke-opacity:1"
       d="M 82.20103,53.561024 V 49.844743"
       id="path965"
       inkscape:connector-curvature="0"
       sodipodi:nodetypes="cc" />
    <path
       style="fill:none;stroke:#000000;stroke-width:0.26458332px;stroke-linecap:butt;stroke-linejoin:miter;stroke-opacity:1"
       d="M 96.061633,64.004813 V 49.834708"
       id="path967"
       inkscape:connector-curvature="0"
       sodipodi:nodetypes="cc" />
    <text
       xml:space="preserve"
       style="font-style:normal;font-weight:normal;font-size:6.3499999px;line-height:0px;font-family:sans-serif;letter-spacing:0px;word-spacing:0px;fill:#000000;fill-opacity:1;stroke:none;stroke-width:0.26458332"
       x="75.858109"
       y="57.502731"
       id="text1001"><tspan
         sodipodi:role="line"
         id="tspan999"
         x="75.858109"
         y="57.502731"
         style="font-size:4.93888903px;stroke-width:0.26458332">CSPL</tspan></text>
    <text
       xml:space="preserve"
       style="font-style:normal;font-weight:normal;font-size:6.3499999px;line-height:0px;font-family:sans-serif;letter-spacing:0px;word-spacing:0px;fill:#000000;fill-opacity:1;stroke:none;stroke-width:0.26458332"
       x="76.881859"
       y="67.847351"
       id="text1001-3"><tspan
         sodipodi:role="line"
         id="tspan999-1"
         x="76.881859"
         y="67.847351"
         style="font-size:4.93888903px;stroke-width:0.26458332">CSN</tspan></text>
    <text
       xml:space="preserve"
       style="font-style:normal;font-weight:normal;font-size:6.3499999px;line-height:0px;font-family:sans-serif;letter-spacing:0px;word-spacing:0px;fill:#000000;fill-opacity:1;stroke:none;stroke-width:0.26458332"
       x="63.190578"
       y="60.593597"
       id="text1001-3-1"><tspan
         sodipodi:role="line"
         id="tspan999-1-9"
         x="63.190578"
         y="60.593597"
         style="font-size:4.93888903px;stroke-width:0.26458332">RS</tspan></text>
    <text
       xml:space="preserve"
       style="font-style:normal;font-weight:normal;font-size:6.3499999px;line-height:0px;font-family:sans-serif;letter-spacing:0px;word-spacing:0px;fill:#000000;fill-opacity:1;stroke:none;stroke-width:0.26458332"
       x="36.370579"
       y="66.46875"
       id="text1001-0"><tspan
         sodipodi:role="line"
         id="tspan999-5"
         x="36.370579"
         y="66.46875"
         style="font-size:4.93888903px;stroke-width:0.26458332">GND-KILL</tspan></text>
    <path
       style="fill:none;stroke:#000000;stroke-width:0.26458332px;stroke-linecap:butt;stroke-linejoin:miter;stroke-opacity:1"
       d="M 60.128539,55.576749 V 49.613154"
       id="path1760"
       inkscape:connector-curvature="0" />
    <path
       style="fill:none;stroke:#000000;stroke-width:0.26499999;stroke-linecap:butt;stroke-linejoin:miter;stroke-miterlimit:4;stroke-dasharray:none;stroke-opacity:1;marker-end:url(#marker2048)"
       d="m 127.56758,21.011644 h 4.98449"
       id="path2014"
       inkscape:connector-curvature="0" />
    <flowRoot
       transform="matrix(0.26458333,0,0,0.26458333,119.13265,-148.57238)"
       style="font-style:normal;font-weight:normal;font-size:24px;line-height:0px;font-family:sans-serif;letter-spacing:0px;word-spacing:0px;fill:#000000;fill-opacity:1;stroke:none"
       id="flowRoot817-5-5-6-40"
       xml:space="preserve"><flowRegion
         id="flowRegion819-9-0-0-59"><rect
           y="640.17181"
           x="54.548237"
           height="5.9024744"
           width="114.92461"
           id="rect821-9-2-7-4" /></flowRegion><flowPara
         id="flowPara823-1-9-0-69"
         style="font-size:17.33333397px">3V3</flowPara></flowRoot>    <path
       style="stroke:#000000;stroke-width:0.26499999;stroke-linecap:butt;stroke-linejoin:miter;stroke-opacity:1;fill-opacity:1;fill:none;stroke-miterlimit:4;stroke-dasharray:0.26499999,0.52999997;marker-end:url(#marker2495);marker-start:url(#marker2495);stroke-dashoffset:0"
       d="M 90.06518,28.845859 H 60.039528"
       id="path981"
       inkscape:connector-curvature="0" />
    <path
       style="fill:none;stroke:#000000;stroke-width:0.26458332px;stroke-linecap:butt;stroke-linejoin:miter;stroke-opacity:1"
       d="m 90.10851,28.835064 0,5.818706"
       id="path3655"
       inkscape:connector-curvature="0"
       sodipodi:nodetypes="cc" />
  </g>
</svg>
